{
    "key": "group_57d85da19e322",
    "title": "Theme Settings",
    "fields": [
        {
            "key": "field_584f13566ec50",
            "label": "General Info",
            "name": "",
            "type": "tab",
            "instructions": "",
            "required": 0,
            "conditional_logic": 0,
            "wrapper": {
                "width": "",
                "class": "",
                "id": ""
            },
            "placement": "top",
            "endpoint": 0
        },
        {
            "key": "field_57fe92a9844cc",
            "label": "Facility Gallery",
            "name": "facility_gallery",
            "type": "gallery",
            "instructions": "Place the Images for the Main Facility Gallery Here. Then place the shortcode [facility_photo_slider] into your content for it to display within a page or post.",
            "required": 0,
            "conditional_logic": 0,
            "wrapper": {
                "width": "",
                "class": "acf-clear-both",
                "id": ""
            },
            "library": "all",
            "min": "",
            "max": "",
            "min_width": 600,
            "min_height": "",
            "min_size": "",
            "max_width": "",
            "max_height": "",
            "max_size": 300,
            "mime_types": "jpg,png,svg",
            "insert": "append"
        },
        {
            "key": "field_585c1ca6874d5",
            "label": "Resources Sidebar",
            "name": "",
            "type": "tab",
            "instructions": "",
            "required": 0,
            "conditional_logic": 0,
            "wrapper": {
                "width": "",
                "class": "",
                "id": ""
            },
            "placement": "top",
            "endpoint": 0
        },
        {
            "key": "field_585c1d0b874d7",
            "label": "Resources Sidebar Layout",
            "name": "resources_sidebar_layout",
            "type": "select",
            "instructions": "",
            "required": 0,
            "conditional_logic": 0,
            "wrapper": {
                "width": "25",
                "class": "",
                "id": ""
            },
            "choices": {
                "left": "Left",
                "right": "Right"
            },
            "default_value": [
                "left"
            ],
            "allow_null": 0,
            "multiple": 0,
            "ui": 0,
            "ajax": 0,
            "return_format": "value",
            "placeholder": ""
        },
        {
            "key": "field_585c1cd9874d6",
            "label": "Large Resources Sidebar Width",
            "name": "large_resources_sidebar_width",
            "type": "select",
            "instructions": "Select the width for the sidebar and main content on a 12 grid layout; ex) if sidebar is 3 the main content will fill 9 columns.",
            "required": 0,
            "conditional_logic": 0,
            "wrapper": {
                "width": "25",
                "class": "",
                "id": ""
            },
            "choices": {
                "2": "2",
                "3": "3",
                "4": "4",
                "5": "5"
            },
            "default_value": [],
            "allow_null": 0,
            "multiple": 0,
            "ui": 0,
            "ajax": 0,
            "return_format": "value",
            "placeholder": ""
        },
        {
            "key": "field_58824bc8bf3a3",
            "label": "Medium Resources Sidebar Width",
            "name": "medium_resources_sidebar_width",
            "type": "select",
            "instructions": "Select the width for the sidebar and main content on a 12 grid layout; ex) if sidebar is 3 the main content will fill 9 columns.",
            "required": 0,
            "conditional_logic": 0,
            "wrapper": {
                "width": "25",
                "class": "",
                "id": ""
            },
            "choices": {
                "2": "2",
                "3": "3",
                "4": "4",
                "5": "5"
            },
            "default_value": [],
            "allow_null": 0,
            "multiple": 0,
            "ui": 0,
            "ajax": 0,
            "return_format": "value",
            "placeholder": ""
        },
        {
            "key": "field_584f134b6ec4f",
            "label": "Page Sidebar",
            "name": "",
            "type": "tab",
            "instructions": "",
            "required": 0,
            "conditional_logic": 0,
            "wrapper": {
                "width": "",
                "class": "",
                "id": ""
            },
            "placement": "top",
            "endpoint": 0
        },
        {
            "key": "field_584aec4230ffd",
            "label": "Sidebar Layout",
            "name": "sidebar_layout",
            "type": "select",
            "instructions": "",
            "required": 0,
            "conditional_logic": 0,
            "wrapper": {
                "width": "25",
                "class": "",
                "id": ""
            },
            "multiple": 0,
            "allow_null": 0,
            "choices": {
                "left": "Left",
                "right": "Right"
            },
            "default_value": [
                "left"
            ],
            "ui": 0,
            "ajax": 0,
            "placeholder": "",
            "return_format": "value"
        },
        {
            "key": "field_584aecdf30ffe",
            "label": "Large Sidebar Width",
            "name": "large_sidebar_width",
            "type": "select",
            "instructions": "Select the width for the sidebar and main content on a 12 grid layout; ex) if sidebar is 3 the main content will fill 9 columns.",
            "required": 0,
            "conditional_logic": 0,
            "wrapper": {
                "width": "25",
                "class": "",
                "id": ""
            },
            "multiple": 0,
            "allow_null": 0,
            "choices": {
                "2": "2",
                "3": "3",
                "4": "4",
                "5": "5"
            },
            "default_value": [],
            "ui": 0,
            "ajax": 0,
            "placeholder": "",
            "return_format": "value"
        },
        {
            "key": "field_58824bd6bf3a4",
            "label": "Medium Sidebar Width",
            "name": "medium_sidebar_width",
            "type": "select",
            "instructions": "Select the width for the sidebar and main content on a 12 grid layout; ex) if sidebar is 3 the main content will fill 9 columns.",
            "required": 0,
            "conditional_logic": 0,
            "wrapper": {
                "width": "25",
                "class": "",
                "id": ""
            },
            "multiple": 0,
            "allow_null": 0,
            "choices": {
                "2": "2",
                "3": "3",
                "4": "4",
                "5": "5"
            },
            "default_value": [],
            "ui": 0,
            "ajax": 0,
            "placeholder": "",
            "return_format": "value"
        },
        {
            "key": "field_584f13386ec4e",
            "label": "Video",
            "name": "",
            "type": "tab",
            "instructions": "",
            "required": 0,
            "conditional_logic": 0,
            "wrapper": {
                "width": "",
                "class": "",
                "id": ""
            },
            "placement": "top",
            "endpoint": 0
        },
        {
            "key": "field_57d81d996717f",
            "label": "Facility Video Embedd Code",
            "name": "main_video",
            "type": "textarea",
            "instructions": "This is the video that shows up on the Billboard module when you select video as the media type. This is an area designated for an iframe embedd code of the Facility's video.",
            "required": 0,
            "conditional_logic": 0,
            "wrapper": {
                "width": "",
                "class": "",
                "id": ""
            },
            "default_value": "",
            "placeholder": "",
            "maxlength": "",
            "rows": 2,
            "new_lines": ""
        },
        {
            "key": "field_59122fbbe9552",
            "label": "Post, Archive, Category Options",
            "name": "",
            "type": "tab",
            "instructions": "",
            "required": 0,
            "conditional_logic": 0,
            "wrapper": {
                "width": "",
                "class": "",
                "id": ""
            },
            "placement": "top",
            "endpoint": 0
        },
        {
            "key": "field_59122db885c63",
            "label": "Blog Post Grid Large",
            "name": "blog_post_grid_large",
            "type": "select",
            "instructions": "Select how many posts you want to display in the grid on the posts, archive, search and categories pages.",
            "required": 0,
            "conditional_logic": 0,
            "wrapper": {
                "width": "50",
                "class": "",
                "id": ""
            },
            "choices": {
                "1": "1",
                "2": "2",
                "3": "3",
                "4": "4"
            },
            "default_value": [
                1
            ],
            "allow_null": 0,
            "multiple": 0,
            "ui": 0,
            "ajax": 0,
            "return_format": "value",
            "placeholder": ""
        },
        {
            "key": "field_591233ce356b9",
            "label": "Blog Post Grid Medium",
            "name": "blog_post_grid_medium",
            "type": "select",
            "instructions": "Select how many posts you want to display in the grid on the posts, archive, search and categories pages.",
            "required": 0,
            "conditional_logic": 0,
            "wrapper": {
                "width": "50",
                "class": "",
                "id": ""
            },
            "choices": {
                "1": "1",
                "2": "2",
                "3": "3",
                "4": "4"
            },
            "default_value": [
                1
            ],
            "allow_null": 0,
            "multiple": 0,
            "ui": 0,
            "ajax": 0,
            "return_format": "value",
            "placeholder": ""
        }
    ],
    "location": [
        [
            {
                "param": "options_page",
                "operator": "==",
                "value": "theme-general-settings"
            }
        ]
    ],
    "menu_order": 0,
    "position": "normal",
    "style": "default",
    "label_placement": "top",
    "instruction_placement": "label",
    "hide_on_screen": "",
    "active": 1,
    "description": "",
    "modified": 1494532424
}