{
    "key": "group_582a1cdf8a389",
    "title": "Card",
    "fields": [
        {
            "key": "field_58337a63c3573",
            "label": "Add Link Wrapper",
            "name": "add_link",
            "type": "true_false",
            "instructions": "",
            "required": 0,
            "conditional_logic": 0,
            "wrapper": {
                "width": "15",
                "class": "",
                "id": ""
            },
            "message": "",
            "default_value": 0,
            "ui": 0,
            "ui_on_text": "",
            "ui_off_text": ""
        },
        {
            "key": "field_58337a89c3574",
            "label": "Link Wrapper Select",
            "name": "link_select",
            "type": "select",
            "instructions": "",
            "required": 0,
            "conditional_logic": [
                [
                    {
                        "field": "field_58337a63c3573",
                        "operator": "==",
                        "value": "1"
                    }
                ]
            ],
            "wrapper": {
                "width": "30",
                "class": "",
                "id": ""
            },
            "choices": {
                "#": "None",
                "external": "External URL",
                "page": "Page",
                "modal": "Modal"
            },
            "default_value": [
                "#"
            ],
            "allow_null": 0,
            "multiple": 0,
            "ui": 0,
            "ajax": 0,
            "return_format": "value",
            "placeholder": ""
        },
        {
            "key": "field_58c2ded9ac0ee",
            "label": "Link Page",
            "name": "link_target",
            "type": "page_link",
            "instructions": "",
            "required": 0,
            "conditional_logic": [
                [
                    {
                        "field": "field_58337a89c3574",
                        "operator": "==",
                        "value": "page"
                    }
                ]
            ],
            "wrapper": {
                "width": "55",
                "class": "",
                "id": ""
            },
            "post_type": [],
            "taxonomy": [],
            "allow_null": 1,
            "allow_archives": 1,
            "multiple": 0
        },
        {
            "key": "field_58337bb1b5d57",
            "label": "Link External",
            "name": "link_target",
            "type": "url",
            "instructions": "",
            "required": 0,
            "conditional_logic": [
                [
                    {
                        "field": "field_58337a89c3574",
                        "operator": "==",
                        "value": "external"
                    }
                ]
            ],
            "wrapper": {
                "width": "55",
                "class": "",
                "id": ""
            },
            "default_value": "",
            "placeholder": ""
        },
        {
            "key": "field_59406a1a72e89",
            "label": "Modal Target",
            "name": "modal_target",
            "type": "text",
            "instructions": "Type the name of the ID exactly as you gave it or will give it to your Modal.",
            "required": 1,
            "conditional_logic": [
                [
                    {
                        "field": "field_58337a89c3574",
                        "operator": "==",
                        "value": "modal"
                    }
                ]
            ],
            "wrapper": {
                "width": "55",
                "class": "",
                "id": ""
            },
            "default_value": "",
            "placeholder": "my_modal",
            "prepend": "",
            "append": "",
            "maxlength": ""
        },
        {
            "key": "field_582a1ce544ead",
            "label": "Card Header",
            "name": "card_header",
            "type": "text",
            "instructions": "The header for the card",
            "required": 0,
            "conditional_logic": 0,
            "wrapper": {
                "width": "100",
                "class": "acf-clear-both",
                "id": ""
            },
            "default_value": "",
            "maxlength": "",
            "placeholder": "",
            "prepend": "",
            "append": ""
        },
        {
            "key": "field_582cd76fedc4c",
            "label": "Card Secondary",
            "name": "card_secondary",
            "type": "select",
            "instructions": "",
            "required": 0,
            "conditional_logic": 0,
            "wrapper": {
                "width": "25",
                "class": "",
                "id": ""
            },
            "choices": {
                "h3": "Subhead",
                "p": "Paragraph",
                "div": "Wysiwyg"
            },
            "default_value": [],
            "allow_null": 1,
            "multiple": 0,
            "ui": 0,
            "ajax": 0,
            "return_format": "value",
            "placeholder": ""
        },
        {
            "key": "field_582cd75eedc4b",
            "label": "Subhead Text",
            "name": "card_secondary_text",
            "type": "text",
            "instructions": "",
            "required": 0,
            "conditional_logic": [
                [
                    {
                        "field": "field_582cd76fedc4c",
                        "operator": "==",
                        "value": "h3"
                    }
                ],
                [
                    {
                        "field": "field_582cd76fedc4c",
                        "operator": "==",
                        "value": "calling"
                    }
                ]
            ],
            "wrapper": {
                "width": "75",
                "class": "",
                "id": ""
            },
            "default_value": "",
            "maxlength": "",
            "placeholder": "",
            "prepend": "",
            "append": ""
        },
        {
            "key": "field_582f23de3c7b3",
            "label": "Paragraph Text",
            "name": "card_secondary_text",
            "type": "textarea",
            "instructions": "",
            "required": 0,
            "conditional_logic": [
                [
                    {
                        "field": "field_582cd76fedc4c",
                        "operator": "==",
                        "value": "p"
                    }
                ]
            ],
            "wrapper": {
                "width": "75",
                "class": "",
                "id": ""
            },
            "default_value": "",
            "new_lines": "",
            "maxlength": "",
            "placeholder": "",
            "rows": 5
        },
        {
            "key": "field_586d2fd2b22d2",
            "label": "Wysiwyg",
            "name": "card_secondary_text",
            "type": "wysiwyg",
            "instructions": "",
            "required": 0,
            "conditional_logic": [
                [
                    {
                        "field": "field_582cd76fedc4c",
                        "operator": "==",
                        "value": "div"
                    }
                ]
            ],
            "wrapper": {
                "width": "",
                "class": "",
                "id": ""
            },
            "default_value": "",
            "tabs": "all",
            "toolbar": "full",
            "media_upload": 1,
            "delay": 0
        },
        {
            "key": "field_582c76db01681",
            "label": "Add Button",
            "name": "add_button",
            "type": "checkbox",
            "instructions": "",
            "required": 0,
            "conditional_logic": 0,
            "wrapper": {
                "width": "12",
                "class": "",
                "id": ""
            },
            "layout": "horizontal",
            "choices": {
                "true": "True"
            },
            "default_value": [],
            "allow_custom": 0,
            "save_custom": 0,
            "toggle": 0,
            "return_format": "value"
        },
        {
            "key": "field_582a1d1644eaf",
            "label": "Button",
            "name": "button",
            "type": "clone",
            "instructions": "",
            "required": 0,
            "conditional_logic": [
                [
                    {
                        "field": "field_582c76db01681",
                        "operator": "==",
                        "value": "true"
                    }
                ]
            ],
            "wrapper": {
                "width": "88",
                "class": "",
                "id": ""
            },
            "clone": [
                "group_582a33c4cd728"
            ],
            "prefix_label": 0,
            "prefix_name": 1,
            "display": "group",
            "layout": "table"
        }
    ],
    "location": [
        [
            {
                "param": "post_status",
                "operator": "==",
                "value": "acf-disabled"
            }
        ]
    ],
    "menu_order": 0,
    "position": "normal",
    "style": "seamless",
    "label_placement": "top",
    "instruction_placement": "label",
    "hide_on_screen": "",
    "active": 1,
    "description": "",
    "modified": 1497393729
}