{
    "key": "group_58263d3de7e8f",
    "title": "Contact",
    "fields": [
        {
            "key": "field_5915e48f4fb6c",
            "label": "Settings",
            "name": "",
            "type": "tab",
            "instructions": "",
            "required": 0,
            "conditional_logic": 0,
            "wrapper": {
                "width": "",
                "class": "",
                "id": ""
            },
            "placement": "left",
            "endpoint": 0
        },
        {
            "key": "field_5845e492457e6",
            "label": "Section Header",
            "name": "section_header",
            "type": "clone",
            "instructions": "",
            "required": 0,
            "conditional_logic": 0,
            "wrapper": {
                "width": "",
                "class": "",
                "id": ""
            },
            "clone": [
                "group_5845e0e0070a5"
            ],
            "prefix_label": 0,
            "prefix_name": 0,
            "display": "seamless",
            "layout": "block"
        },
        {
            "key": "field_583dfc12cacf1",
            "label": "Content",
            "name": "",
            "type": "tab",
            "instructions": "",
            "required": 0,
            "conditional_logic": 0,
            "wrapper": {
                "width": "",
                "class": "",
                "id": ""
            },
            "placement": "left",
            "endpoint": 0
        },
        {
            "key": "field_583e011927236",
            "label": "Contact Image",
            "name": "image_url",
            "type": "image",
            "instructions": "Select the image to display next to the map",
            "required": 0,
            "conditional_logic": 0,
            "wrapper": {
                "width": "25",
                "class": "",
                "id": ""
            },
            "return_format": "url",
            "preview_size": "medium",
            "library": "all",
            "min_width": "",
            "min_height": "",
            "min_size": "",
            "max_width": "",
            "max_height": "",
            "max_size": "",
            "mime_types": ""
        },
        {
            "key": "field_583df8c660a67",
            "label": "Contact Header",
            "name": "contact_header",
            "type": "text",
            "instructions": "The header for the Contact section.",
            "required": 0,
            "conditional_logic": 0,
            "wrapper": {
                "width": "80",
                "class": "",
                "id": ""
            },
            "default_value": "",
            "maxlength": "",
            "placeholder": "",
            "prepend": "",
            "append": ""
        },
        {
            "key": "field_5845a696986e1",
            "label": "Address Select",
            "name": "address_select",
            "type": "radio",
            "instructions": "",
            "required": 0,
            "conditional_logic": 0,
            "wrapper": {
                "width": "",
                "class": "",
                "id": ""
            },
            "choices": {
                "facility": "Facility Address",
                "custom": "Custom Address"
            },
            "allow_null": 0,
            "other_choice": 0,
            "save_other_choice": 0,
            "default_value": "facility",
            "layout": "horizontal",
            "return_format": "value"
        },
        {
            "key": "field_587d49486160b",
            "label": "Alt Phone #",
            "name": "altphone_check",
            "type": "checkbox",
            "instructions": "",
            "required": 0,
            "conditional_logic": 0,
            "wrapper": {
                "width": "10",
                "class": "",
                "id": ""
            },
            "layout": "horizontal",
            "choices": {
                "true": "True"
            },
            "default_value": [],
            "allow_custom": 0,
            "save_custom": 0,
            "toggle": 0,
            "return_format": "value"
        },
        {
            "key": "field_587d494d6160c",
            "label": "Alt Phone Text",
            "name": "altphone_text",
            "type": "text",
            "instructions": "This is what will display for your Alternate phone number.",
            "required": 0,
            "conditional_logic": [
                [
                    {
                        "field": "field_587d49486160b",
                        "operator": "==",
                        "value": "true"
                    }
                ]
            ],
            "wrapper": {
                "width": "20",
                "class": "",
                "id": ""
            },
            "default_value": "",
            "maxlength": 14,
            "placeholder": "ex) 1-800-888-LAKE",
            "prepend": "",
            "append": ""
        },
        {
            "key": "field_587d49536160d",
            "label": "Alt Phone Number",
            "name": "altphone_number",
            "type": "text",
            "instructions": "The Actual phone number to be used as the Alternate Phone Number",
            "required": 0,
            "conditional_logic": [
                [
                    {
                        "field": "field_587d49486160b",
                        "operator": "==",
                        "value": "true"
                    }
                ]
            ],
            "wrapper": {
                "width": "20",
                "class": "",
                "id": ""
            },
            "default_value": "",
            "maxlength": 14,
            "placeholder": "ex) 1-800-888-8888",
            "prepend": "",
            "append": ""
        },
        {
            "key": "field_583e05820a70b",
            "label": "Address Text",
            "name": "address_text",
            "type": "wysiwyg",
            "instructions": "Enter your new address and phone number",
            "required": 0,
            "conditional_logic": [
                [
                    {
                        "field": "field_5845a696986e1",
                        "operator": "==",
                        "value": "custom"
                    }
                ]
            ],
            "wrapper": {
                "width": "",
                "class": "",
                "id": ""
            },
            "tabs": "all",
            "toolbar": "full",
            "media_upload": 1,
            "default_value": "",
            "delay": 0
        },
        {
            "key": "field_583dfa0d1e17d",
            "label": "Map",
            "name": "",
            "type": "tab",
            "instructions": "",
            "required": 0,
            "conditional_logic": 0,
            "wrapper": {
                "width": "",
                "class": "",
                "id": ""
            },
            "placement": "left",
            "endpoint": 0
        },
        {
            "key": "field_58b5f6b23f7ae",
            "label": "Map View",
            "name": "map_view",
            "type": "select",
            "instructions": "",
            "required": 0,
            "conditional_logic": 0,
            "wrapper": {
                "width": "25",
                "class": "acf-pull-center",
                "id": ""
            },
            "choices": {
                "left": "Left",
                "right": "Right"
            },
            "default_value": [
                "push"
            ],
            "allow_null": 0,
            "multiple": 0,
            "ui": 0,
            "ajax": 0,
            "return_format": "value",
            "placeholder": ""
        },
        {
            "key": "field_583df4e1e0267",
            "label": "Map Width",
            "name": "map_width",
            "type": "select",
            "instructions": "",
            "required": 0,
            "conditional_logic": 0,
            "wrapper": {
                "width": "25",
                "class": "acf-pull-right",
                "id": ""
            },
            "multiple": 0,
            "allow_null": 0,
            "choices": {
                "4": "4",
                "5": "5",
                "6": "6",
                "7": "7",
                "8": "8",
                "9": "9"
            },
            "default_value": [],
            "ui": 0,
            "ajax": 0,
            "placeholder": "",
            "return_format": "value"
        },
        {
            "key": "field_58b5f6323f7ac",
            "label": "Map-Repeater",
            "name": "map_repeater",
            "type": "repeater",
            "instructions": "",
            "required": 0,
            "conditional_logic": 0,
            "wrapper": {
                "width": "",
                "class": "",
                "id": ""
            },
            "collapsed": "",
            "min": 0,
            "max": 0,
            "layout": "row",
            "button_label": "Add Location",
            "sub_fields": [
                {
                    "key": "field_595aa5b12965b",
                    "label": "Map",
                    "name": "",
                    "type": "tab",
                    "instructions": "Put in a google map",
                    "required": 0,
                    "conditional_logic": 0,
                    "wrapper": {
                        "width": "50",
                        "class": "acf-pull-right",
                        "id": ""
                    },
                    "placement": "top",
                    "endpoint": 0
                },
                {
                    "key": "field_58263d4145f1c",
                    "label": "Map",
                    "name": "the_map",
                    "type": "google_map",
                    "instructions": "Put in a google map",
                    "required": 0,
                    "conditional_logic": 0,
                    "wrapper": {
                        "width": "50",
                        "class": "acf-pull-right",
                        "id": ""
                    },
                    "height": 220,
                    "center_lat": -37,
                    "center_lng": 144,
                    "zoom": 14
                },
                {
                    "key": "field_595aa5bc2965c",
                    "label": "Popup",
                    "name": "",
                    "type": "tab",
                    "instructions": "Put in a google map",
                    "required": 0,
                    "conditional_logic": 0,
                    "wrapper": {
                        "width": "50",
                        "class": "acf-pull-right",
                        "id": ""
                    },
                    "placement": "top",
                    "endpoint": 0
                },
                {
                    "key": "field_58b5f6563f7ad",
                    "label": "Popup",
                    "name": "",
                    "type": "message",
                    "instructions": "",
                    "required": 0,
                    "conditional_logic": 0,
                    "wrapper": {
                        "width": "50",
                        "class": "acf-float-left",
                        "id": ""
                    },
                    "message": "The following fields are for the popup which will appear when the map icon is clicked.",
                    "new_lines": "wpautop",
                    "esc_html": 0
                },
                {
                    "key": "field_583dea209ae4b",
                    "label": "Popup Header",
                    "name": "popup_header",
                    "type": "text",
                    "instructions": "This is the popup which will appear when the map icon is clicked on.",
                    "required": 0,
                    "conditional_logic": 0,
                    "wrapper": {
                        "width": "50",
                        "class": "",
                        "id": ""
                    },
                    "default_value": "",
                    "maxlength": "",
                    "placeholder": "",
                    "prepend": "",
                    "append": ""
                },
                {
                    "key": "field_583dea4c9ae4c",
                    "label": "Popup select",
                    "name": "popup_select",
                    "type": "radio",
                    "instructions": "",
                    "required": 0,
                    "conditional_logic": 0,
                    "wrapper": {
                        "width": "100",
                        "class": "",
                        "id": ""
                    },
                    "choices": {
                        "facility_address": "Facility Address",
                        "custom_address": "Custom Address"
                    },
                    "allow_null": 0,
                    "other_choice": 0,
                    "save_other_choice": 0,
                    "default_value": "facility",
                    "layout": "horizontal",
                    "return_format": "value"
                },
                {
                    "key": "field_584ae4b7d1269",
                    "label": "Popup Custom Address",
                    "name": "popup_address_text",
                    "type": "wysiwyg",
                    "instructions": "Enter the text for the popup address. Hit enter to break to a new line.",
                    "required": 0,
                    "conditional_logic": [
                        [
                            {
                                "field": "field_583dea4c9ae4c",
                                "operator": "==",
                                "value": "custom_address"
                            }
                        ]
                    ],
                    "wrapper": {
                        "width": "50",
                        "class": "acf-pull-left",
                        "id": ""
                    },
                    "tabs": "all",
                    "toolbar": "full",
                    "media_upload": 1,
                    "default_value": "",
                    "delay": 0
                },
                {
                    "key": "field_583deb692b1d5",
                    "label": "Add Button",
                    "name": "popup_add_button",
                    "type": "checkbox",
                    "instructions": "",
                    "required": 0,
                    "conditional_logic": 0,
                    "wrapper": {
                        "width": "12.5",
                        "class": "acf-pull-left",
                        "id": ""
                    },
                    "layout": "horizontal",
                    "choices": {
                        "true": "True"
                    },
                    "default_value": [],
                    "allow_custom": 0,
                    "save_custom": 0,
                    "toggle": 0,
                    "return_format": "value"
                },
                {
                    "key": "field_583deb01bf59d",
                    "label": "Button Text",
                    "name": "popup_button_text",
                    "type": "text",
                    "instructions": "",
                    "required": 0,
                    "conditional_logic": [
                        [
                            {
                                "field": "field_583deb692b1d5",
                                "operator": "==",
                                "value": "true"
                            }
                        ]
                    ],
                    "wrapper": {
                        "width": "100",
                        "class": "",
                        "id": ""
                    },
                    "default_value": "",
                    "placeholder": "",
                    "prepend": "",
                    "append": "",
                    "maxlength": ""
                },
                {
                    "key": "field_583deb06bf59e",
                    "label": "Button Target",
                    "name": "popup_button_targetselect",
                    "type": "select",
                    "instructions": "",
                    "required": 0,
                    "conditional_logic": [
                        [
                            {
                                "field": "field_583deb692b1d5",
                                "operator": "==",
                                "value": "true"
                            }
                        ]
                    ],
                    "wrapper": {
                        "width": "32",
                        "class": "",
                        "id": ""
                    },
                    "choices": {
                        "#": "None",
                        "external": "External URL",
                        "page": "Page"
                    },
                    "default_value": [
                        "#"
                    ],
                    "allow_null": 0,
                    "multiple": 0,
                    "ui": 0,
                    "ajax": 0,
                    "return_format": "value",
                    "placeholder": ""
                },
                {
                    "key": "field_583deb09bf59f",
                    "label": "Button Target Page",
                    "name": "popup_button_target",
                    "type": "page_link",
                    "instructions": "",
                    "required": 0,
                    "conditional_logic": [
                        [
                            {
                                "field": "field_583deb692b1d5",
                                "operator": "==",
                                "value": "true"
                            },
                            {
                                "field": "field_583deb06bf59e",
                                "operator": "==",
                                "value": "page"
                            }
                        ]
                    ],
                    "wrapper": {
                        "width": "12.5",
                        "class": "",
                        "id": ""
                    },
                    "post_type": [],
                    "taxonomy": [],
                    "allow_null": 1,
                    "multiple": 0,
                    "allow_archives": 1
                },
                {
                    "key": "field_583deb0cbf5a0",
                    "label": "Button Target External",
                    "name": "popup_button_target",
                    "type": "url",
                    "instructions": "",
                    "required": 0,
                    "conditional_logic": [
                        [
                            {
                                "field": "field_583deb692b1d5",
                                "operator": "==",
                                "value": "true"
                            },
                            {
                                "field": "field_583deb06bf59e",
                                "operator": "==",
                                "value": "external"
                            }
                        ]
                    ],
                    "wrapper": {
                        "width": "12.5",
                        "class": "",
                        "id": ""
                    },
                    "default_value": "",
                    "placeholder": ""
                }
            ]
        }
    ],
    "location": [
        [
            {
                "param": "post_status",
                "operator": "==",
                "value": "acf-disabled"
            }
        ]
    ],
    "menu_order": 0,
    "position": "normal",
    "style": "seamless",
    "label_placement": "top",
    "instruction_placement": "field",
    "hide_on_screen": "",
    "active": 1,
    "description": "",
    "modified": 1499114387
}