{
    "key": "group_58474d07732e3",
    "title": "General Page Enhancements",
    "fields": [
        {
            "default_value": 0,
            "message": "Blurb?",
            "ui": 0,
            "ui_on_text": "",
            "ui_off_text": "",
            "key": "field_58474d271ad4a",
            "label": "Blurb?",
            "name": "blurb_select",
            "type": "true_false",
            "instructions": "",
            "required": 0,
            "conditional_logic": 0,
            "wrapper": {
                "width": "10",
                "class": "",
                "id": ""
            }
        },
        {
            "default_value": "",
            "new_lines": "",
            "maxlength": 265,
            "placeholder": "",
            "rows": 5,
            "key": "field_58474d0c1ad49",
            "label": "Blurb Text",
            "name": "blurb_text",
            "type": "textarea",
            "instructions": "",
            "required": 0,
            "conditional_logic": [
                [
                    {
                        "field": "field_58474d271ad4a",
                        "operator": "==",
                        "value": "1"
                    }
                ]
            ],
            "wrapper": {
                "width": "90",
                "class": "",
                "id": ""
            }
        },
        {
            "return_format": "array",
            "preview_size": "thumbnail",
            "library": "all",
            "min_width": "",
            "min_height": "",
            "min_size": "",
            "max_width": "",
            "max_height": "",
            "max_size": "",
            "mime_types": "",
            "key": "field_587cec83ed0f1",
            "label": "Page Title Custom Background",
            "name": "page_title_custom_background",
            "type": "image",
            "instructions": "If you would like to override the default background image on the page title please upload an image here.",
            "required": 0,
            "conditional_logic": 0,
            "wrapper": {
                "width": "",
                "class": "",
                "id": ""
            }
        }
    ],
    "location": [
        [
            {
                "param": "page_template",
                "operator": "==",
                "value": "default"
            }
        ],
        [
            {
                "param": "page_template",
                "operator": "==",
                "value": "template-full-width.php"
            }
        ],
        [
            {
                "param": "post_type",
                "operator": "==",
                "value": "post"
            }
        ]
    ],
    "menu_order": 0,
    "position": "acf_after_title",
    "style": "seamless",
    "label_placement": "top",
    "instruction_placement": "label",
    "hide_on_screen": "",
    "active": 1,
    "description": "",
    "modified": 1484582883
}